{
    "$help": "https://aka.ms/terminal-documentation",
    "$schema": "https://aka.ms/terminal-profiles-schema",
    "actions": 
    [
        {
            "command": 
            {
                "action": "copy",
                "singleLine": false
            },
            "keys": "ctrl+c"
        },
        {
            "command": "paste",
            "keys": "ctrl+v"
        },
        {
            "command": 
            {
                "action": "copy",
                "copyFormatting": "rtf",
                "singleLine": false
            },
            "keys": "ctrl+y"
        },
        {
            "command": 
            {
                "action": "splitPane",
                "split": "auto",
                "splitMode": "duplicate"
            },
            "keys": "alt+shift+d"
        },
        {
            "command": 
            {
                "action": "copy",
                "copyFormatting": "html",
                "singleLine": false
            },
            "keys": "ctrl+h"
        },
        {
            "command": "find",
            "keys": "ctrl+shift+f"
        },
        {
            "command": 
            {
                "action": "splitPane",
                "split": "down",
                "splitMode": "duplicate"
            },
            "keys": "alt+shift+u"
        }
    ],
    "copyFormatting": "none",
    "copyOnSelect": false,
    "defaultProfile": "{61c54bbd-c2c6-5271-96e7-009a87ff44bf}",
    "profiles": 
    {
        "defaults": {},
        "list": 
        [
            {
                "backgroundImage": "C:\\Users\\Public\\Pictures\\icons8-powershell-48.png",
                "backgroundImageAlignment": "topRight",
                "backgroundImageStretchMode": "none",
                "colorScheme": "Gruvbox Dark",
                "font": 
                {
                    "face": "DejaVuSansM Nerd Font",
                    "size": 16
                },
                "guid": "{61c54bbd-c2c6-5271-96e7-009a87ff44bf}",
                "hidden": false,
                "name": "Windows PowerShell"
            },
            {
                "backgroundImage": "C:\\Users\\Public\\Pictures\\icons8-powershell-48.png",
                "backgroundImageAlignment": "topRight",
                "backgroundImageStretchMode": "none",
                "colorScheme": "Gruvbox Dark",
                "commandline": "powershell.exe",
                "elevate": true,
                "font": 
                {
                    "face": "DejaVuSansM Nerd Font",
                    "size": 16
                },
                "guid": "{898c309c-e825-4d3a-bf94-5144ed822936}",
                "hidden": false,
                "icon": "\ud83d\udd25",
                "name": "Windows PowerShell as admin"
            },
            {
                "backgroundImage": "C:\\Users\\Public\\Pictures\\msdos 32x32.png",
                "backgroundImageAlignment": "topRight",
                "backgroundImageStretchMode": "none",
                "colorScheme": "Red Planet",
                "font": 
                {
                    "face": "DejaVuSansM Nerd Font",
                    "size": 16
                },
                "guid": "{779fee91-8432-4cc9-9294-a66562086c27}",
                "hidden": false,
                "name": "Eingabeaufforderung",
                "startingDirectory": "C:\\Users\\ThinkPad"
            },
            {
                "commandline": "cmd.exe",
                "guid": "{0caa0dad-35be-5f56-a8ff-afceeeaa610a}",
                "hidden": true,
                "name": "transparent",
                "opacity": 0,
                "useAcrylic": true
            },
            {
                "commandline": "notepad.exe",
                "guid": "{0caa0dad-35be-5f56-a8ff-afceeeaa61ff}",
                "hidden": true,
                "name": "notepad"
            },
            {
                "backgroundImage": "C:\\Users\\Public\\Pictures\\iconfinder_linux_tux_337128.png",
                "backgroundImageAlignment": "topRight",
                "backgroundImageStretchMode": "none",
                "opacity": 100,
                "colorScheme": "Gruvbox Dark",
                "commandline": "cmd.exe /C C:\\Users\\ThinkPad\\Apps\\cygwin\\Cygwin1.bat",
                "experimental.retroTerminalEffect": false,
                "font": 
                {
                    "face": "Hack Nerd Font",
                    "size": 16
                },
                //"font": 
                //{
                //    "face": "DejaVuSansMono Nerd Font",
                //    "size": 16
                //},
                "guid": "{7b48ef86-d463-4658-8f31-e5395239b3e2}",
                "hidden": false,
                "icon": "C:\\Users\\Public\\Pictures\\tux_94512.ico",
                "name": "fish"
            },
            {
                "guid": "{b453ae62-4e3d-5e58-b989-0a998ec441b8}",
                "hidden": true,
                "name": "Azure Cloud Shell",
                "source": "Windows.Terminal.Azure"
            },
            {
                "guid": "{b83ad71e-e858-5288-bda1-f6b050160ab8}",
                "hidden": false,
                "name": "Developer Command Prompt for VS 2019",
                "source": "Windows.Terminal.VisualStudio"
            },
            {
                "guid": "{c8338241-cc13-5840-a714-30d817a15f6c}",
                "hidden": false,
                "name": "Developer PowerShell for VS 2019",
                "source": "Windows.Terminal.VisualStudio"
            }
        ]
    },
    "schemes": 
    [
        {
            "background": "#F7F7F7",
            "black": "#090300",
            "blue": "#01A0E4",
            "brightBlack": "#5C5855",
            "brightBlue": "#807D7C",
            "brightCyan": "#CDAB53",
            "brightGreen": "#3A3432",
            "brightPurple": "#D6D5D4",
            "brightRed": "#E8BBD0",
            "brightWhite": "#F7F7F7",
            "brightYellow": "#4A4543",
            "cursorColor": "#FFFFFF",
            "cyan": "#B5E4F4",
            "foreground": "#4A4543",
            "green": "#01A252",
            "name": "3024 Day",
            "purple": "#A16A94",
            "red": "#DB2D20",
            "selectionBackground": "#FFFFFF",
            "white": "#A5A2A2",
            "yellow": "#FDED02"
        },
        {
            "background": "#090300",
            "black": "#090300",
            "blue": "#01A0E4",
            "brightBlack": "#5C5855",
            "brightBlue": "#807D7C",
            "brightCyan": "#CDAB53",
            "brightGreen": "#3A3432",
            "brightPurple": "#D6D5D4",
            "brightRed": "#E8BBD0",
            "brightWhite": "#F7F7F7",
            "brightYellow": "#4A4543",
            "cursorColor": "#FFFFFF",
            "cyan": "#B5E4F4",
            "foreground": "#A5A2A2",
            "green": "#01A252",
            "name": "3024 Night",
            "purple": "#A16A94",
            "red": "#DB2D20",
            "selectionBackground": "#FFFFFF",
            "white": "#A5A2A2",
            "yellow": "#FDED02"
        },
        {
            "background": "#212121",
            "black": "#151515",
            "blue": "#6C99BB",
            "brightBlack": "#505050",
            "brightBlue": "#6C99BB",
            "brightCyan": "#7DD6CF",
            "brightGreen": "#7E8E50",
            "brightPurple": "#9F4E85",
            "brightRed": "#AC4142",
            "brightWhite": "#F5F5F5",
            "brightYellow": "#E5B567",
            "cursorColor": "#FFFFFF",
            "cyan": "#7DD6CF",
            "foreground": "#D0D0D0",
            "green": "#7E8E50",
            "name": "Afterglow",
            "purple": "#9F4E85",
            "red": "#AC4142",
            "selectionBackground": "#FFFFFF",
            "white": "#D0D0D0",
            "yellow": "#E5B567"
        },
        {
            "background": "#1C1C1C",
            "black": "#3D352A",
            "blue": "#6495ED",
            "brightBlack": "#554444",
            "brightBlue": "#87CEEB",
            "brightCyan": "#B0C4DE",
            "brightGreen": "#88AA22",
            "brightPurple": "#996600",
            "brightRed": "#CC5533",
            "brightWhite": "#DDCCBB",
            "brightYellow": "#FFA75D",
            "cursorColor": "#FFFFFF",
            "cyan": "#B0C4DE",
            "foreground": "#DDEEDD",
            "green": "#86AF80",
            "name": "Arthur",
            "purple": "#DEB887",
            "red": "#CD5C5C",
            "selectionBackground": "#FFFFFF",
            "white": "#BBAA99",
            "yellow": "#E8AE5B"
        },
        {
            "background": "#0C0C0C",
            "black": "#0C0C0C",
            "blue": "#0037DA",
            "brightBlack": "#767676",
            "brightBlue": "#3B78FF",
            "brightCyan": "#61D6D6",
            "brightGreen": "#16C60C",
            "brightPurple": "#B4009E",
            "brightRed": "#E74856",
            "brightWhite": "#F2F2F2",
            "brightYellow": "#F9F1A5",
            "cursorColor": "#FFFFFF",
            "cyan": "#3A96DD",
            "foreground": "#CCCCCC",
            "green": "#13A10E",
            "name": "Campbell",
            "purple": "#881798",
            "red": "#C50F1F",
            "selectionBackground": "#FFFFFF",
            "white": "#CCCCCC",
            "yellow": "#C19C00"
        },
        {
            "background": "#012456",
            "black": "#0C0C0C",
            "blue": "#0037DA",
            "brightBlack": "#767676",
            "brightBlue": "#3B78FF",
            "brightCyan": "#61D6D6",
            "brightGreen": "#16C60C",
            "brightPurple": "#B4009E",
            "brightRed": "#E74856",
            "brightWhite": "#F2F2F2",
            "brightYellow": "#F9F1A5",
            "cursorColor": "#FFFFFF",
            "cyan": "#3A96DD",
            "foreground": "#CCCCCC",
            "green": "#13A10E",
            "name": "Campbell Powershell",
            "purple": "#881798",
            "red": "#C50F1F",
            "selectionBackground": "#FFFFFF",
            "white": "#CCCCCC",
            "yellow": "#C19C00"
        },
        {
            "background": "#222324",
            "black": "#000000",
            "blue": "#1C98E8",
            "brightBlack": "#000000",
            "brightBlue": "#387CD3",
            "brightCyan": "#3D97E2",
            "brightGreen": "#77B869",
            "brightPurple": "#957BBE",
            "brightRed": "#E05A4F",
            "brightWhite": "#BABABA",
            "brightYellow": "#EFD64B",
            "cursorColor": "#FFFFFF",
            "cyan": "#1C98E8",
            "foreground": "#BABABA",
            "green": "#68C256",
            "name": "Darkside",
            "purple": "#8E69C9",
            "red": "#E8341C",
            "selectionBackground": "#FFFFFF",
            "white": "#BABABA",
            "yellow": "#F2D42C"
        },
        {
            "background": "#333333",
            "black": "#4D4D4D",
            "blue": "#CD853F",
            "brightBlack": "#555555",
            "brightBlue": "#87CEFF",
            "brightCyan": "#FFD700",
            "brightGreen": "#55FF55",
            "brightPurple": "#FF55FF",
            "brightRed": "#FF5555",
            "brightWhite": "#FFFFFF",
            "brightYellow": "#FFFF55",
            "cursorColor": "#FFFFFF",
            "cyan": "#FFA0A0",
            "foreground": "#FFFFFF",
            "green": "#98FB98",
            "name": "Desert",
            "purple": "#FFDEAD",
            "red": "#FF2B2B",
            "selectionBackground": "#FFFFFF",
            "white": "#F5DEB3",
            "yellow": "#F0E68C"
        },
        {
            "background": "#282C34",
            "black": "#000000",
            "blue": "#A9A1E1",
            "brightBlack": "#000000",
            "brightBlue": "#A9A1E1",
            "brightCyan": "#51AFEF",
            "brightGreen": "#99BB66",
            "brightPurple": "#C678DD",
            "brightRed": "#FF6655",
            "brightWhite": "#BFBFBF",
            "brightYellow": "#ECBE7B",
            "cursorColor": "#FFFFFF",
            "cyan": "#51AFEF",
            "foreground": "#BBC2CF",
            "green": "#98BE65",
            "name": "DoomOne",
            "purple": "#C678DD",
            "red": "#FF6C6B",
            "selectionBackground": "#FFFFFF",
            "white": "#BBC2CF",
            "yellow": "#ECBE7B"
        },
        {
            "background": "#282A36",
            "black": "#21222C",
            "blue": "#BD93F9",
            "brightBlack": "#6272A4",
            "brightBlue": "#D6ACFF",
            "brightCyan": "#A4FFFF",
            "brightGreen": "#69FF94",
            "brightPurple": "#FF92DF",
            "brightRed": "#FF6E6E",
            "brightWhite": "#FFFFFF",
            "brightYellow": "#FFFFA5",
            "cursorColor": "#FFFFFF",
            "cyan": "#8BE9FD",
            "foreground": "#F8F8F2",
            "green": "#50FA7B",
            "name": "Dracula",
            "purple": "#FF79C6",
            "red": "#FF5555",
            "selectionBackground": "#FFFFFF",
            "white": "#F8F8F2",
            "yellow": "#F1FA8C"
        },
        {
            "background": "#292520",
            "black": "#121418",
            "blue": "#1398B9",
            "brightBlack": "#675F54",
            "brightBlue": "#5FDAFF",
            "brightCyan": "#84F088",
            "brightGreen": "#98E036",
            "brightPurple": "#FF9269",
            "brightRed": "#FF645A",
            "brightWhite": "#F6F7EC",
            "brightYellow": "#E0D561",
            "cursorColor": "#FFFFFF",
            "cyan": "#509552",
            "foreground": "#E5C7A9",
            "green": "#85C54C",
            "name": "Earthsong",
            "purple": "#D0633D",
            "red": "#C94234",
            "selectionBackground": "#FFFFFF",
            "white": "#E5C6AA",
            "yellow": "#F5AE2E"
        },
        {
            "background": "#323232",
            "black": "#353535",
            "blue": "#6C99BB",
            "brightBlack": "#535353",
            "brightBlue": "#8AB7D9",
            "brightCyan": "#DCF4FF",
            "brightGreen": "#C2E075",
            "brightPurple": "#EFB5F7",
            "brightRed": "#F00C0C",
            "brightWhite": "#FFFFFF",
            "brightYellow": "#E1E48B",
            "cursorColor": "#FFFFFF",
            "cyan": "#BED6FF",
            "foreground": "#FFFFFF",
            "green": "#A5C261",
            "name": "Espresso",
            "purple": "#D197D9",
            "red": "#D25252",
            "selectionBackground": "#FFFFFF",
            "white": "#EEEEEC",
            "yellow": "#FFC66D"
        },
        {
            "background": "#2A211C",
            "black": "#000000",
            "blue": "#0066FF",
            "brightBlack": "#555753",
            "brightBlue": "#43A8ED",
            "brightCyan": "#34E2E2",
            "brightGreen": "#9AFF87",
            "brightPurple": "#FF818A",
            "brightRed": "#EF2929",
            "brightWhite": "#EEEEEC",
            "brightYellow": "#FFFB5C",
            "cursorColor": "#FFFFFF",
            "cyan": "#06989A",
            "foreground": "#B8A898",
            "green": "#1A921C",
            "name": "Espresso Libre",
            "purple": "#C5656B",
            "red": "#CC0000",
            "selectionBackground": "#FFFFFF",
            "white": "#D3D7CF",
            "yellow": "#F0E53A"
        },
        {
            "background": "#1D1F21",
            "black": "#1D1D19",
            "blue": "#5096BE",
            "brightBlack": "#1D1D19",
            "brightBlue": "#61B9D0",
            "brightCyan": "#D63865",
            "brightGreen": "#A7D42C",
            "brightPurple": "#695ABC",
            "brightRed": "#D22A24",
            "brightWhite": "#FFFFFF",
            "brightYellow": "#FF8949",
            "cursorColor": "#FFFFFF",
            "cyan": "#D63865",
            "foreground": "#B8DBEF",
            "green": "#9FD364",
            "name": "Flatland",
            "purple": "#695ABC",
            "red": "#F18339",
            "selectionBackground": "#FFFFFF",
            "white": "#FFFFFF",
            "yellow": "#F4EF6D"
        },
        {
            "background": "#251200",
            "black": "#000000",
            "blue": "#4699A3",
            "brightBlack": "#7F6A55",
            "brightBlue": "#7CC9CF",
            "brightCyan": "#E6A96B",
            "brightGreen": "#BFC65A",
            "brightPurple": "#D26349",
            "brightRed": "#E55A1C",
            "brightWhite": "#FFEAA3",
            "brightYellow": "#FFCB1B",
            "cursorColor": "#FFFFFF",
            "cyan": "#DA8213",
            "foreground": "#DEC165",
            "green": "#919C00",
            "name": "FunForrest",
            "purple": "#8D4331",
            "red": "#D6262B",
            "selectionBackground": "#FFFFFF",
            "white": "#DDC265",
            "yellow": "#BE8A13"
        },
        {
            "background": "#1E1E1E",
            "black": "#1E1E1E",
            "blue": "#377375",
            "brightBlack": "#7F7061",
            "brightBlue": "#719586",
            "brightCyan": "#7DB669",
            "brightGreen": "#AAB01E",
            "brightPurple": "#C77089",
            "brightRed": "#F73028",
            "brightWhite": "#E6D4A3",
            "brightYellow": "#F7B125",
            "cursorColor": "#FFFFFF",
            "cyan": "#578E57",
            "foreground": "#E6D4A3",
            "green": "#868715",
            "name": "Gruvbox Dark",
            "purple": "#A04B73",
            "red": "#BE0F17",
            "selectionBackground": "#FFFFFF",
            "white": "#978771",
            "yellow": "#CC881A"
        },
        {
            "background": "#1E1E1E",
            "black": "#343935",
            "blue": "#4C9AD4",
            "brightBlack": "#595B59",
            "brightBlue": "#135979",
            "brightCyan": "#76BBCA",
            "brightGreen": "#767F2C",
            "brightPurple": "#604291",
            "brightRed": "#D18FA6",
            "brightWhite": "#B2B5AE",
            "brightYellow": "#78592F",
            "cursorColor": "#FFFFFF",
            "cyan": "#389AAD",
            "foreground": "#F7F6EC",
            "green": "#7BB75B",
            "name": "Japanesque",
            "purple": "#A57FC4",
            "red": "#CF3F61",
            "selectionBackground": "#FFFFFF",
            "white": "#FAFAF6",
            "yellow": "#E9B32A"
        },
        {
            "background": "#222222",
            "black": "#2B2B2B",
            "blue": "#A0BAD6",
            "brightBlack": "#454747",
            "brightBlue": "#6699D6",
            "brightCyan": "#5FC0AE",
            "brightGreen": "#AABB39",
            "brightPurple": "#AB53D6",
            "brightRed": "#D3232F",
            "brightWhite": "#C1C2C2",
            "brightYellow": "#E5BE39",
            "cursorColor": "#FFFFFF",
            "cyan": "#91BFB7",
            "foreground": "#959595",
            "green": "#AFBA67",
            "name": "Later This Evening",
            "purple": "#C092D6",
            "red": "#D45A60",
            "selectionBackground": "#FFFFFF",
            "white": "#3C3D3D",
            "yellow": "#E5D289"
        },
        {
            "background": "#232322",
            "black": "#212121",
            "blue": "#134EB2",
            "brightBlack": "#424242",
            "brightBlue": "#54A4F3",
            "brightCyan": "#26BBD1",
            "brightGreen": "#7ABA3A",
            "brightPurple": "#AA4DBC",
            "brightRed": "#E83B3F",
            "brightWhite": "#D9D9D9",
            "brightYellow": "#FFEA2E",
            "cursorColor": "#FFFFFF",
            "cyan": "#0E717C",
            "foreground": "#E5E5E5",
            "green": "#457B24",
            "name": "MaterialDark",
            "purple": "#560088",
            "red": "#B7141F",
            "selectionBackground": "#FFFFFF",
            "white": "#EFEFEF",
            "yellow": "#F6981E"
        },
        {
            "background": "#151718",
            "black": "#151718",
            "blue": "#9D65FF",
            "brightBlack": "#625E4C",
            "brightBlue": "#9D65FF",
            "brightCyan": "#58D1EB",
            "brightGreen": "#98F424",
            "brightPurple": "#F4005F",
            "brightRed": "#F4005F",
            "brightWhite": "#F6F6EF",
            "brightYellow": "#FA8419",
            "cursorColor": "#FFFFFF",
            "cyan": "#58D1EB",
            "foreground": "#F8F8F2",
            "green": "#98F424",
            "name": "Monokai Seti Dark",
            "purple": "#F4005F",
            "red": "#F4005F",
            "selectionBackground": "#FFFFFF",
            "white": "#F8F8F2",
            "yellow": "#FA8419"
        },
        {
            "background": "#222222",
            "black": "#383838",
            "blue": "#657D3E",
            "brightBlack": "#474747",
            "brightBlue": "#98BD5E",
            "brightCyan": "#DCDCDC",
            "brightGreen": "#8C8C8C",
            "brightPurple": "#A3A3A3",
            "brightRed": "#A97775",
            "brightWhite": "#D8C8BB",
            "brightYellow": "#A99175",
            "cursorColor": "#FFFFFF",
            "cyan": "#C9C9C9",
            "foreground": "#A0A0A0",
            "green": "#666666",
            "name": "N0tch2k",
            "purple": "#767676",
            "red": "#A95551",
            "selectionBackground": "#FFFFFF",
            "white": "#D0B8A3",
            "yellow": "#A98051"
        },
        {
            "background": "#283033",
            "black": "#000000",
            "blue": "#3A9BDB",
            "brightBlack": "#555555",
            "brightBlue": "#A1D7FF",
            "brightCyan": "#55FFFF",
            "brightGreen": "#93C863",
            "brightPurple": "#FF55FF",
            "brightRed": "#FF0003",
            "brightWhite": "#FFFFFF",
            "brightYellow": "#FEF874",
            "cursorColor": "#FFFFFF",
            "cyan": "#00BBBB",
            "foreground": "#CDCDCD",
            "green": "#00BB00",
            "name": "Obsidian",
            "purple": "#BB00BB",
            "red": "#A60001",
            "selectionBackground": "#FFFFFF",
            "white": "#BBBBBB",
            "yellow": "#FECD22"
        },
        {
            "background": "#224FBC",
            "black": "#000000",
            "blue": "#0000B2",
            "brightBlack": "#666666",
            "brightBlue": "#0000FF",
            "brightCyan": "#00E5E5",
            "brightGreen": "#00D900",
            "brightPurple": "#E500E5",
            "brightRed": "#E50000",
            "brightWhite": "#E5E5E5",
            "brightYellow": "#E5E500",
            "cursorColor": "#FFFFFF",
            "cyan": "#00A6B2",
            "foreground": "#FFFFFF",
            "green": "#00A600",
            "name": "Ocean",
            "purple": "#B200B2",
            "red": "#990000",
            "selectionBackground": "#FFFFFF",
            "white": "#BFBFBF",
            "yellow": "#999900"
        },
        {
            "background": "#282C34",
            "black": "#282C34",
            "blue": "#61AFEF",
            "brightBlack": "#5A6374",
            "brightBlue": "#61AFEF",
            "brightCyan": "#56B6C2",
            "brightGreen": "#98C379",
            "brightPurple": "#C678DD",
            "brightRed": "#E06C75",
            "brightWhite": "#DCDFE4",
            "brightYellow": "#E5C07B",
            "cursorColor": "#FFFFFF",
            "cyan": "#56B6C2",
            "foreground": "#DCDFE4",
            "green": "#98C379",
            "name": "One Half Dark",
            "purple": "#C678DD",
            "red": "#E06C75",
            "selectionBackground": "#FFFFFF",
            "white": "#DCDFE4",
            "yellow": "#E5C07B"
        },
        {
            "background": "#FAFAFA",
            "black": "#383A42",
            "blue": "#0184BC",
            "brightBlack": "#4F525D",
            "brightBlue": "#61AFEF",
            "brightCyan": "#56B5C1",
            "brightGreen": "#98C379",
            "brightPurple": "#C577DD",
            "brightRed": "#DF6C75",
            "brightWhite": "#FFFFFF",
            "brightYellow": "#E4C07A",
            "cursorColor": "#4F525D",
            "cyan": "#0997B3",
            "foreground": "#383A42",
            "green": "#50A14F",
            "name": "One Half Light",
            "purple": "#A626A4",
            "red": "#E45649",
            "selectionBackground": "#FFFFFF",
            "white": "#FAFAFA",
            "yellow": "#C18301"
        },
        {
            "background": "#000000",
            "black": "#000000",
            "blue": "#0000BB",
            "brightBlack": "#000000",
            "brightBlue": "#3442F1",
            "brightCyan": "#55FFFF",
            "brightGreen": "#64D238",
            "brightPurple": "#FF55FF",
            "brightRed": "#FF5555",
            "brightWhite": "#FFFFFF",
            "brightYellow": "#FFFF55",
            "cursorColor": "#FFFFFF",
            "cyan": "#00BBBB",
            "foreground": "#BBBBBB",
            "green": "#00BB00",
            "name": "Putty",
            "purple": "#BB00BB",
            "red": "#BB0000",
            "selectionBackground": "#FFFFFF",
            "white": "#BBBBBB",
            "yellow": "#BBBB00"
        },
        {
            "background": "#222222",
            "black": "#202020",
            "blue": "#69819E",
            "brightBlack": "#676767",
            "brightBlue": "#60827E",
            "brightCyan": "#38ADD8",
            "brightGreen": "#869985",
            "brightPurple": "#DE4974",
            "brightRed": "#B55242",
            "brightWhite": "#D6BFB8",
            "brightYellow": "#EBEB91",
            "cursorColor": "#FFFFFF",
            "cyan": "#5B8390",
            "foreground": "#C2B790",
            "green": "#728271",
            "name": "Red Planet",
            "purple": "#896492",
            "red": "#8C3432",
            "selectionBackground": "#FFFFFF",
            "white": "#B9AA99",
            "yellow": "#E8BF6A"
        },
        {
            "background": "#243435",
            "black": "#757575",
            "blue": "#4D7B82",
            "brightBlack": "#8A8A8A",
            "brightBlue": "#7AC3CF",
            "brightCyan": "#ADE0E0",
            "brightGreen": "#98D9AA",
            "brightPurple": "#D6B2A1",
            "brightRed": "#CF937A",
            "brightWhite": "#E0E0E0",
            "brightYellow": "#FAE79D",
            "cursorColor": "#FFFFFF",
            "cyan": "#729494",
            "foreground": "#D4E7D4",
            "green": "#728C62",
            "name": "Seafoam Pastel",
            "purple": "#8A7267",
            "red": "#825D4D",
            "selectionBackground": "#FFFFFF",
            "white": "#E0E0E0",
            "yellow": "#ADA16D"
        },
        {
            "background": "#002B36",
            "black": "#002B36",
            "blue": "#268BD2",
            "brightBlack": "#073642",
            "brightBlue": "#839496",
            "brightCyan": "#93A1A1",
            "brightGreen": "#586E75",
            "brightPurple": "#6C71C4",
            "brightRed": "#CB4B16",
            "brightWhite": "#FDF6E3",
            "brightYellow": "#657B83",
            "cursorColor": "#FFFFFF",
            "cyan": "#2AA198",
            "foreground": "#839496",
            "green": "#859900",
            "name": "Solarized Dark",
            "purple": "#D33682",
            "red": "#DC322F",
            "selectionBackground": "#FFFFFF",
            "white": "#EEE8D5",
            "yellow": "#B58900"
        },
        {
            "background": "#FDF6E3",
            "black": "#002B36",
            "blue": "#268BD2",
            "brightBlack": "#073642",
            "brightBlue": "#839496",
            "brightCyan": "#93A1A1",
            "brightGreen": "#586E75",
            "brightPurple": "#6C71C4",
            "brightRed": "#CB4B16",
            "brightWhite": "#FDF6E3",
            "brightYellow": "#657B83",
            "cursorColor": "#002B36",
            "cyan": "#2AA198",
            "foreground": "#657B83",
            "green": "#859900",
            "name": "Solarized Light",
            "purple": "#D33682",
            "red": "#DC322F",
            "selectionBackground": "#FFFFFF",
            "white": "#EEE8D5",
            "yellow": "#B58900"
        },
        {
            "background": "#000000",
            "black": "#000000",
            "blue": "#3465A4",
            "brightBlack": "#555753",
            "brightBlue": "#729FCF",
            "brightCyan": "#34E2E2",
            "brightGreen": "#8AE234",
            "brightPurple": "#AD7FA8",
            "brightRed": "#EF2929",
            "brightWhite": "#EEEEEC",
            "brightYellow": "#FCE94F",
            "cursorColor": "#FFFFFF",
            "cyan": "#06989A",
            "foreground": "#D3D7CF",
            "green": "#4E9A06",
            "name": "Tango Dark",
            "purple": "#75507B",
            "red": "#CC0000",
            "selectionBackground": "#FFFFFF",
            "white": "#D3D7CF",
            "yellow": "#C4A000"
        },
        {
            "background": "#FFFFFF",
            "black": "#000000",
            "blue": "#3465A4",
            "brightBlack": "#555753",
            "brightBlue": "#729FCF",
            "brightCyan": "#34E2E2",
            "brightGreen": "#8AE234",
            "brightPurple": "#AD7FA8",
            "brightRed": "#EF2929",
            "brightWhite": "#EEEEEC",
            "brightYellow": "#FCE94F",
            "cursorColor": "#000000",
            "cyan": "#06989A",
            "foreground": "#555753",
            "green": "#4E9A06",
            "name": "Tango Light",
            "purple": "#75507B",
            "red": "#CC0000",
            "selectionBackground": "#FFFFFF",
            "white": "#D3D7CF",
            "yellow": "#C4A000"
        },
        {
            "background": "#232323",
            "black": "#000000",
            "blue": "#579BD5",
            "brightBlack": "#797979",
            "brightBlue": "#9BDBFE",
            "brightCyan": "#2BC4E2",
            "brightGreen": "#1AD69C",
            "brightPurple": "#DF89DD",
            "brightRed": "#F6645D",
            "brightWhite": "#EAEAEA",
            "brightYellow": "#F6F353",
            "cursorColor": "#FFFFFF",
            "cyan": "#00B6D6",
            "foreground": "#D3D3D3",
            "green": "#3FC48A",
            "name": "VSCode",
            "purple": "#CA5BC8",
            "red": "#D8473F",
            "selectionBackground": "#FFFFFF",
            "white": "#EAEAEA",
            "yellow": "#D7BA7D"
        },
        {
            "background": "#000000",
            "black": "#000000",
            "blue": "#000080",
            "brightBlack": "#808080",
            "brightBlue": "#0000FF",
            "brightCyan": "#00FFFF",
            "brightGreen": "#00FF00",
            "brightPurple": "#FF00FF",
            "brightRed": "#FF0000",
            "brightWhite": "#FFFFFF",
            "brightYellow": "#FFFF00",
            "cursorColor": "#FFFFFF",
            "cyan": "#008080",
            "foreground": "#C0C0C0",
            "green": "#008000",
            "name": "Vintage",
            "purple": "#800080",
            "red": "#800000",
            "selectionBackground": "#FFFFFF",
            "white": "#C0C0C0",
            "yellow": "#808000"
        },
        {
            "background": "#1C1D1F",
            "black": "#56595C",
            "blue": "#2E8BCE",
            "brightBlack": "#45484B",
            "brightBlue": "#2176C7",
            "brightCyan": "#259286",
            "brightGreen": "#738A04",
            "brightPurple": "#C61C6F",
            "brightRed": "#BD3613",
            "brightWhite": "#C9C6BD",
            "brightYellow": "#A57705",
            "cursorColor": "#FFFFFF",
            "cyan": "#32A198",
            "foreground": "#708284",
            "green": "#85981C",
            "name": "Violet Dark",
            "purple": "#D13A82",
            "red": "#C94C22",
            "selectionBackground": "#FFFFFF",
            "white": "#C9C6BD",
            "yellow": "#B4881D"
        },
        {
            "background": "#F5DEB3",
            "black": "#000000",
            "blue": "#0225C7",
            "brightBlack": "#686868",
            "brightBlue": "#6871FF",
            "brightCyan": "#60FDFF",
            "brightGreen": "#5FFA68",
            "brightPurple": "#FF77FF",
            "brightRed": "#FF6E67",
            "brightWhite": "#FFFFFF",
            "brightYellow": "#FFFC67",
            "cursorColor": "#FFFFFF",
            "cyan": "#00C5C7",
            "foreground": "#000000",
            "green": "#00C200",
            "name": "coffee_theme",
            "purple": "#CA30C7",
            "red": "#C91B00",
            "selectionBackground": "#FFFFFF",
            "white": "#C7C7C7",
            "yellow": "#C7C400"
        },
        {
            "background": "#332A57",
            "black": "#000000",
            "blue": "#00BFFF",
            "brightBlack": "#000000",
            "brightBlue": "#1BCCFD",
            "brightCyan": "#99D6FC",
            "brightGreen": "#21F6BC",
            "brightPurple": "#E6AEFE",
            "brightRed": "#FF8AA4",
            "brightWhite": "#FFFFFF",
            "brightYellow": "#FFF787",
            "cursorColor": "#FFFFFF",
            "cyan": "#86CBFE",
            "foreground": "#E5E5E5",
            "green": "#00FBAC",
            "name": "cyberpunk",
            "purple": "#DF95FF",
            "red": "#FF7092",
            "selectionBackground": "#FFFFFF",
            "white": "#FFFFFF",
            "yellow": "#FFFA6A"
        }
    ]
}
